{"content":[{"code":"AFG","name":"Afghanistan","codeTwo":"AF","wikiId":"Q889","population":36643815,"capital":"Kabul","flag":"https://commons.wikimedia.org/wiki/Special:FilePath/Flag%20of%20Afghanistan.svg","currency":{"name":"Afghan afghani","code":"AFN"},"location":{"location":"Point(66.0 34.0)","lat":"66.0","lon":"34.0","geo":"http://commons.wikimedia.org/data/main/Data:Afghanistan.map","map":["https://commons.wikimedia.org/wiki/Special:FilePath/Afghanistan%20on%20the%20globe%20%28Afghanistan%20centered%29.svg","https://commons.wikimedia.org/wiki/Special:FilePath/LocationAfghanistan.svg"]},"regions":[]},{"code":"ALB","name":"Albania","codeTwo":"AL","wikiId":"Q222","population":3020209,"capital":"Tirana","flag":"https://commons.wikimedia.org/wiki/Special:FilePath/Flag%20of%20Albania.svg","currency":{"name":"Albanian lek","code":"ALL"},"location":{"location":"Point(20.0 41.0)","lat":"20.0","lon":"41.0","geo":"http://commons.wikimedia.org/data/main/Data:Albania.map","map":["https://commons.wikimedia.org/wiki/Special:FilePath/Albania%20%28orthographic%20projection%29.svg","https://commons.wikimedia.org/wiki/Special:FilePath/LocationAlbania.svg","https://commons.wikimedia.org/wiki/Special:FilePath/Locator%20map%20of%20Albania.svg"]},"regions":[{"isoCode":"01","countryCode":"AL","name":"Berat County","fipsCode":"40","wikiId":"Q189296","numCities":117,"capital":"Berat"},{"isoCode":"09","countryCode":"AL","name":"Dibër County","fipsCode":"41","wikiId":"Q192866","numCities":81,"capital":"Peshkopi"},{"isoCode":"02","countryCode":"AL","name":"Durrës County","fipsCode":"42","wikiId":"Q192853","numCities":34,"capital":"Durrës"},{"isoCode":"03","countryCode":"AL","name":"Elbasan County","fipsCode":"43","wikiId":"Q193790","numCities":114,"capital":"Elbasan"},{"isoCode":"04","countryCode":"AL","name":"Fier County","fipsCode":"44","wikiId":"Q231900","numCities":287,"capital":"Fier"},{"isoCode":"05","countryCode":"AL","name":"Gjirokastër County","fipsCode":"45","wikiId":"Q193454","numCities":74,"capital":"Gjirokastër"},{"isoCode":"KA","countryCode":"AL","name":"Kavajë District","fipsCode":"","wikiId":"Q194182","numCities":0,"capital":"Kavajë"},{"isoCode":"06","countryCode":"AL","name":"Korçë County","fipsCode":"46","wikiId":"Q193464","numCities":0,"capital":"Korçë"},{"isoCode":"KO","countryCode":"AL","name":"Korçë District","fipsCode":"46","wikiId":"Q191491","numCities":91,"capital":"Korçë"},{"isoCode":"07","countryCode":"AL","name":"Kukës County","fipsCode":"47","wikiId":"Q231896","numCities":217,"capital":"Kukës"},{"isoCode":"08","countryCode":"AL","name":"Lezhë County","fipsCode":"48","wikiId":"Q193436","numCities":1,"capital":"Lezhë"},{"isoCode":"LE","countryCode":"AL","name":"Lezhë District","fipsCode":"48","wikiId":"Q194185","numCities":58,"capital":"Lezhë"},{"isoCode":"LB","countryCode":"AL","name":"Librazhd District","fipsCode":"","wikiId":"Q207002","numCities":0,"capital":"Librazhd"},{"isoCode":"LU","countryCode":"AL","name":"Lushnjë District","fipsCode":"","wikiId":"Q206994","numCities":0,"capital":"Lushnjë"},{"isoCode":"10","countryCode":"AL","name":"Shkodër County","fipsCode":"49","wikiId":"Q193438","numCities":158,"capital":"Shkodër"},{"isoCode":"SK","countryCode":"AL","name":"Skrapar District","fipsCode":"","wikiId":"Q194381","numCities":0,"capital":"Çorovodë"},{"isoCode":"11","countryCode":"AL","name":"Tirana County","fipsCode":"50","wikiId":"Q229892","numCities":124,"capital":"Tirana"},{"isoCode":"12","countryCode":"AL","name":"Vlorë County","fipsCode":"51","wikiId":"Q192849","numCities":78,"capital":"Vlorë"}]},{"code":"DZA","name":"Algeria","codeTwo":"DZ","wikiId":"Q262","population":41318142,"capital":"Algiers","flag":"https://commons.wikimedia.org/wiki/Special:FilePath/Flag%20of%20Algeria.svg","currency":{"name":"Algerian dinar","code":"DZD"},"location":{"location":"Point(1.0 28.0)","lat":"1.0","lon":"28.0","geo":"http://commons.wikimedia.org/data/main/Data:Algeria.map","map":["https://commons.wikimedia.org/wiki/Special:FilePath/DZA%20orthographic.svg","https://commons.wikimedia.org/wiki/Special:FilePath/LocationAlgeria.svg"]},"regions":[{"isoCode":"01","countryCode":"DZ","name":"Adrar Province","fipsCode":"34","wikiId":"Q188166","numCities":36,"capital":"Adrar"},{"isoCode":"16","countryCode":"DZ","name":"Algiers Province","fipsCode":"01","wikiId":"Q141026","numCities":36,"capital":"Algiers"},{"isoCode":"23","countryCode":"DZ","name":"Annaba Province","fipsCode":"37","wikiId":"Q213944","numCities":7,"capital":"Annaba"},{"isoCode":"44","countryCode":"DZ","name":"Aïn Defla Province","fipsCode":"35","wikiId":"Q168953","numCities":54,"capital":"Aïn Defla"},{"isoCode":"46","countryCode":"DZ","name":"Aïn Témouchent Province","fipsCode":"36","wikiId":"Q233670","numCities":20,"capital":"Aïn Témouchent"},{"isoCode":"05","countryCode":"DZ","name":"Batna Province","fipsCode":"03","wikiId":"Q215452","numCities":40,"capital":"Batna"},{"isoCode":"07","countryCode":"DZ","name":"Biskra","fipsCode":"19","wikiId":"Q458402","numCities":43,"capital":"Biskra"},{"isoCode":"09","countryCode":"DZ","name":"Blida Province","fipsCode":"20","wikiId":"Q233637","numCities":24,"capital":"Blida"},{"isoCode":"34","countryCode":"DZ","name":"Bordj Bou Arréridj Province","fipsCode":"39","wikiId":"Q266411","numCities":35,"capital":"Bordj Bou Arréridj"},{"isoCode":"35","countryCode":"DZ","name":"Boumerdès Province","fipsCode":"40","wikiId":"Q236752","numCities":30,"capital":"Boumerdès"},{"isoCode":"10","countryCode":"DZ","name":"Bouïra Province","fipsCode":"21","wikiId":"Q233655","numCities":40,"capital":"Bouïra"},{"isoCode":"08","countryCode":"DZ","name":"Béchar Province","fipsCode":"38","wikiId":"Q215467","numCities":29,"capital":"Béchar"},{"isoCode":"06","countryCode":"DZ","name":"Béjaïa Province","fipsCode":"18","wikiId":"Q233665","numCities":36,"capital":"Béjaïa"},{"isoCode":"02","countryCode":"DZ","name":"Chlef Province","fipsCode":"41","wikiId":"Q231752","numCities":33,"capital":"Chlef"},{"isoCode":"25","countryCode":"DZ","name":"Constantine Province","fipsCode":"04","wikiId":"Q232043","numCities":21,"capital":"Constantine"},{"isoCode":"17","countryCode":"DZ","name":"Djelfa Province","fipsCode":"22","wikiId":"Q233233","numCities":38,"capital":"Djelfa"},{"isoCode":"32","countryCode":"DZ","name":"El Bayadh Province","fipsCode":"42","wikiId":"Q235703","numCities":51,"capital":"El Bayadh"},{"isoCode":"39","countryCode":"DZ","name":"El Oued Province","fipsCode":"43","wikiId":"Q233651","numCities":30,"capital":"El Oued"},{"isoCode":"36","countryCode":"DZ","name":"El Tarf Province","fipsCode":"44","wikiId":"Q236788","numCities":37,"capital":"El Taref"},{"isoCode":"47","countryCode":"DZ","name":"Ghardaïa Province","fipsCode":"45","wikiId":"Q17601","numCities":14,"capital":"Ghardaia"},{"isoCode":"24","countryCode":"DZ","name":"Guelma Province","fipsCode":"23","wikiId":"Q235727","numCities":20,"capital":"Guelma"},{"isoCode":"33","countryCode":"DZ","name":"Illizi Province","fipsCode":"46","wikiId":"Q233659","numCities":23,"capital":"Illizi"},{"isoCode":"18","countryCode":"DZ","name":"Jijel Province","fipsCode":"24","wikiId":"Q235718","numCities":24,"capital":"Jijel"},{"isoCode":"40","countryCode":"DZ","name":"Khenchela Province","fipsCode":"47","wikiId":"Q213950","numCities":12,"capital":"Khenchela"},{"isoCode":"03","countryCode":"DZ","name":"Laghouat Province","fipsCode":"25","wikiId":"Q231748","numCities":20,"capital":"Laghouat"},{"isoCode":"28","countryCode":"DZ","name":"M'Sila Province","fipsCode":"27","wikiId":"Q240870","numCities":36,"capital":"M'Sila"},{"isoCode":"29","countryCode":"DZ","name":"Mascara Province","fipsCode":"26","wikiId":"Q236776","numCities":58,"capital":"Mascara"},{"isoCode":"43","countryCode":"DZ","name":"Mila Province","fipsCode":"48","wikiId":"Q235723","numCities":40,"capital":"Mila"},{"isoCode":"27","countryCode":"DZ","name":"Mostaganem Province","fipsCode":"07","wikiId":"Q221445","numCities":43,"capital":"Mostaganem"},{"isoCode":"26","countryCode":"DZ","name":"Médéa Province","fipsCode":"06","wikiId":"Q235810","numCities":56,"capital":"Médéa"},{"isoCode":"45","countryCode":"DZ","name":"Naama Province","fipsCode":"49","wikiId":"Q233675","numCities":8,"capital":"Naâma"},{"isoCode":"31","countryCode":"DZ","name":"Oran Province","fipsCode":"09","wikiId":"Q231331","numCities":37,"capital":"Oran"},{"isoCode":"30","countryCode":"DZ","name":"Ouargla Province","fipsCode":"50","wikiId":"Q235709","numCities":19,"capital":"Ouargla"},{"isoCode":"04","countryCode":"DZ","name":"Oum El Bouaghi Province","fipsCode":"29","wikiId":"Q235705","numCities":40,"capital":"Oum El Bouaghi"},{"isoCode":"48","countryCode":"DZ","name":"Relizane Province","fipsCode":"51","wikiId":"Q236758","numCities":28,"capital":"Relizane"},{"isoCode":"20","countryCode":"DZ","name":"Saïda Province","fipsCode":"10","wikiId":"Q233640","numCities":27,"capital":"Saïda"},{"isoCode":"22","countryCode":"DZ","name":"Sidi Bel Abbès Province","fipsCode":"30","wikiId":"Q235714","numCities":41,"capital":"Sidi Bel Abbès"},{"isoCode":"21","countryCode":"DZ","name":"Skikda Province","fipsCode":"31","wikiId":"Q234227","numCities":38,"capital":"Skikda"},{"isoCode":"41","countryCode":"DZ","name":"Souk Ahras Province","fipsCode":"52","wikiId":"Q236772","numCities":4,"capital":"Souk Ahras"},{"isoCode":"19","countryCode":"DZ","name":"Sétif Province","fipsCode":"12","wikiId":"Q237164","numCities":35,"capital":"Sétif"},{"isoCode":"11","countryCode":"DZ","name":"Tamanghasset Province","fipsCode":"53","wikiId":"Q229467","numCities":14,"capital":"Tamanrasset"},{"isoCode":"14","countryCode":"DZ","name":"Tiaret Province","fipsCode":"13","wikiId":"Q233258","numCities":48,"capital":"Tiaret"},{"isoCode":"37","countryCode":"DZ","name":"Tindouf Province","fipsCode":"54","wikiId":"Q231151","numCities":1,"capital":"Tindouf"},{"isoCode":"42","countryCode":"DZ","name":"Tipasa Province","fipsCode":"55","wikiId":"Q235814","numCities":44,"capital":"Tipaza"},{"isoCode":"38","countryCode":"DZ","name":"Tissemsilt Province","fipsCode":"56","wikiId":"Q235805","numCities":5,"capital":"Tissemsilt"},{"isoCode":"15","countryCode":"DZ","name":"Tizi Ouzou Province","fipsCode":"14","wikiId":"Q233645","numCities":52,"capital":"Tizi Ouzou"},{"isoCode":"13","countryCode":"DZ","name":"Tlemcen Province","fipsCode":"15","wikiId":"Q233632","numCities":58,"capital":"Tlemcen"},{"isoCode":"12","countryCode":"DZ","name":"Tébessa Province","fipsCode":"33","wikiId":"Q267224","numCities":22,"capital":"Tébessa"}]},{"code":"AND","name":"Andorra","codeTwo":"AD","wikiId":"Q228","population":76177,"capital":"Andorra la Vella","flag":"https://commons.wikimedia.org/wiki/Special:FilePath/Flag%20of%20Andorra.svg","currency":{"name":"euro","code":"EUR"},"location":{"location":"Point(1.555277777 42.558333333)","lat":"1.555277777","lon":"42.558333333","geo":"http://commons.wikimedia.org/data/main/Data:Andorra.map","map":["https://commons.wikimedia.org/wiki/Special:FilePath/Andorra%20on%20the%20globe%20%28Europe%20centered%29.svg","https://commons.wikimedia.org/wiki/Special:FilePath/Location%20Andorra%20Europe.png","https://commons.wikimedia.org/wiki/Special:FilePath/LocationAndorra.svg"]},"regions":[{"isoCode":"07","countryCode":"AD","name":"Andorra la Vella","fipsCode":"07","wikiId":"Q2522163","numCities":3,"capital":"Andorra la Vella"},{"isoCode":"02","countryCode":"AD","name":"Canillo","fipsCode":"02","wikiId":"Q24260","numCities":8,"capital":"Canillo"},{"isoCode":"03","countryCode":"AD","name":"Encamp","fipsCode":"03","wikiId":"Q24269","numCities":4,"capital":"Encamp"},{"isoCode":"08","countryCode":"AD","name":"Escaldes-Engordany","fipsCode":"08","wikiId":"Q24286","numCities":2,"capital":"Les Escaldes"},{"isoCode":"04","countryCode":"AD","name":"La Massana","fipsCode":"04","wikiId":"Q24276","numCities":8,"capital":"La Massana"},{"isoCode":"05","countryCode":"AD","name":"Ordino","fipsCode":"05","wikiId":"Q24272","numCities":8,"capital":"Ordino"},{"isoCode":"06","countryCode":"AD","name":"Sant Julià de Lòria","fipsCode":"06","wikiId":"Q24282","numCities":10,"capital":"Sant Julià de Lòria"}]},{"code":"AGO","name":"Angola","codeTwo":"AO","wikiId":"Q916","population":29784193,"capital":"Luanda","flag":"https://commons.wikimedia.org/wiki/Special:FilePath/Flag%20of%20Angola.svg","currency":{"name":"kwanza","code":"AOA"},"location":{"location":"Point(17.35 -12.35)","lat":"17.35","lon":"-12.35","geo":"http://commons.wikimedia.org/data/main/Data:Angola.map","map":["https://commons.wikimedia.org/wiki/Special:FilePath/Angola%20on%20the%20globe%20%28Angola%20centered%29.svg","https://commons.wikimedia.org/wiki/Special:FilePath/LocationAngola.svg"]},"regions":[{"isoCode":"BGO","countryCode":"AO","name":"Bengo Province","fipsCode":"19","wikiId":"Q191299","numCities":21,"capital":"Caxito"},{"isoCode":"BGU","countryCode":"AO","name":"Benguela Province","fipsCode":"01","wikiId":"Q212786","numCities":11,"capital":"Benguela"},{"isoCode":"BIE","countryCode":"AO","name":"Bié Province","fipsCode":"02","wikiId":"Q213977","numCities":10,"capital":"Kuito"},{"isoCode":"CAB","countryCode":"AO","name":"Cabinda Province","fipsCode":"03","wikiId":"Q168787","numCities":3,"capital":"Cabinda"},{"isoCode":"CCU","countryCode":"AO","name":"Cuando Cubango Province","fipsCode":"04","wikiId":"Q215268","numCities":14,"capital":"Menongue"},{"isoCode":"CNO","countryCode":"AO","name":"Cuanza Norte Province","fipsCode":"05","wikiId":"Q216834","numCities":10,"capital":"N'dalatando"},{"isoCode":"CUS","countryCode":"AO","name":"Cuanza Sul","fipsCode":"06","wikiId":"Q216998","numCities":14,"capital":"Sumbe"},{"isoCode":"CNN","countryCode":"AO","name":"Cunene Province","fipsCode":"07","wikiId":"Q216987","numCities":8,"capital":"Ondjiva"},{"isoCode":"HUA","countryCode":"AO","name":"Huambo Province","fipsCode":"08","wikiId":"Q218848","numCities":11,"capital":"Huambo"},{"isoCode":"HUI","countryCode":"AO","name":"Huíla Province","fipsCode":"09","wikiId":"Q214572","numCities":19,"capital":"Lubango"},{"isoCode":"LUA","countryCode":"AO","name":"Luanda Province","fipsCode":"20","wikiId":"Q190066","numCities":8,"capital":"Luanda"},{"isoCode":"LNO","countryCode":"AO","name":"Lunda Norte Province","fipsCode":"17","wikiId":"Q214221","numCities":7,"capital":"Dundo"},{"isoCode":"LSU","countryCode":"AO","name":"Lunda Sul Province","fipsCode":"18","wikiId":"Q219648","numCities":4,"capital":"Saurimo"},{"isoCode":"MAL","countryCode":"AO","name":"Malanje Province","fipsCode":"12","wikiId":"Q219072","numCities":12,"capital":"Malanje"},{"isoCode":"MOX","countryCode":"AO","name":"Moxico Province","fipsCode":"14","wikiId":"Q173988","numCities":8,"capital":"Luena"},{"isoCode":"NAM","countryCode":"AO","name":"Namibe Province","fipsCode":"13","wikiId":"Q216819","numCities":7,"capital":"Moçâmedes"},{"isoCode":"UIG","countryCode":"AO","name":"Uíge Province","fipsCode":"15","wikiId":"Q216972","numCities":10,"capital":"Uíge"},{"isoCode":"ZAI","countryCode":"AO","name":"Zaire Province","fipsCode":"16","wikiId":"Q196674","numCities":6,"capital":"M'banza-Kongo"}]},{"code":"ATG","name":"Antigua and Barbuda","codeTwo":"AG","wikiId":"Q781","population":102012,"capital":"Saint John's","flag":"https://commons.wikimedia.org/wiki/Special:FilePath/Flag%20of%20Antigua%20and%20Barbuda.svg","currency":{"name":"Eastern Caribbean dollar","code":"XCD"},"location":{"location":"Point(-61.85 17.116666666)","lat":"-61.85","lon":"17.116666666","geo":"http://commons.wikimedia.org/data/main/Data:Antigua+and+Barbuda.map","map":["https://commons.wikimedia.org/wiki/Special:FilePath/ATG%20orthographic.svg"]},"regions":[]},{"code":"ARG","name":"Argentina","codeTwo":"AR","wikiId":"Q414","population":44938712,"capital":"Buenos Aires","flag":"https://commons.wikimedia.org/wiki/Special:FilePath/Flag%20of%20Argentina.svg","currency":{"name":"Argentine peso","code":"ARS"},"location":{"location":"Point(-64.0 -34.0)","lat":"-64.0","lon":"-34.0","geo":"http://commons.wikimedia.org/data/main/Data:Argentina.map","map":["https://commons.wikimedia.org/wiki/Special:FilePath/ARG%20orthographic.svg"]},"regions":[]},{"code":"ARM","name":"Armenia","codeTwo":"AM","wikiId":"Q399","population":2930450,"capital":"Yerevan","flag":"https://commons.wikimedia.org/wiki/Special:FilePath/Flag%20of%20Armenia.svg","currency":{"name":"Armenian dram","code":"AMD"},"location":{"location":"Point(44.95 40.383333)","lat":"44.95","lon":"40.383333","geo":"http://commons.wikimedia.org/data/main/Data:Armenia.map","map":["https://commons.wikimedia.org/wiki/Special:FilePath/Armenia%20%28orthographic%20projection%29.svg","https://commons.wikimedia.org/wiki/Special:FilePath/LocationArmenia.svg"]},"regions":[{"isoCode":"AG","countryCode":"AM","name":"Aragatsotn Region","fipsCode":"01","wikiId":"Q17915","numCities":108,"capital":"Ashtarak"},{"isoCode":"AR","countryCode":"AM","name":"Ararat Province","fipsCode":"02","wikiId":"Q199880","numCities":99,"capital":"Artashat"},{"isoCode":"AV","countryCode":"AM","name":"Armavir Region","fipsCode":"03","wikiId":"Q201147","numCities":86,"capital":"Armavir"},{"isoCode":"GR","countryCode":"AM","name":"Gegharkunik Province","fipsCode":"04","wikiId":"Q199905","numCities":84,"capital":"Gavar"},{"isoCode":"KT","countryCode":"AM","name":"Kotayk Region","fipsCode":"05","wikiId":"Q4511","numCities":62,"capital":"Hrazdan"},{"isoCode":"LO","countryCode":"AM","name":"Lori Region","fipsCode":"06","wikiId":"Q200350","numCities":98,"capital":"Vanadzor"},{"isoCode":"SH","countryCode":"AM","name":"Shirak Region","fipsCode":"07","wikiId":"Q201063","numCities":115,"capital":"Gyumri"},{"isoCode":"SU","countryCode":"AM","name":"Syunik Province","fipsCode":"08","wikiId":"Q2523428","numCities":116,"capital":"Kapan"},{"isoCode":"TV","countryCode":"AM","name":"Tavush Region","fipsCode":"09","wikiId":"Q201140","numCities":68,"capital":"Ijevan"},{"isoCode":"VD","countryCode":"AM","name":"Vayots Dzor Region","fipsCode":"10","wikiId":"Q200124","numCities":49,"capital":"Yeghegnadzor"},{"isoCode":"ER","countryCode":"AM","name":"Yerevan","fipsCode":"11","wikiId":"Q1953","numCities":35,"capital":null}]},{"code":"AUS","name":"Australia","codeTwo":"AU","wikiId":"Q408","population":24511800,"capital":"Canberra","flag":"https://commons.wikimedia.org/wiki/Special:FilePath/Flag%20of%20Australia%20%28converted%29.svg","currency":{"name":"Australian dollar","code":"AUD"},"location":{"location":"Point(137.0 -28.0)","lat":"137.0","lon":"-28.0","geo":"http://commons.wikimedia.org/data/main/Data:Australia.map","map":["https://commons.wikimedia.org/wiki/Special:FilePath/AUS%20orthographic.svg"]},"regions":[]},{"code":"AUT","name":"Austria","codeTwo":"AT","wikiId":"Q40","population":8809212,"capital":"Vienna","flag":"https://commons.wikimedia.org/wiki/Special:FilePath/Flag%20of%20Austria.svg","currency":{"name":"euro","code":"EUR"},"location":{"location":"Point(14.0 48.0)","lat":"14.0","lon":"48.0","geo":"http://commons.wikimedia.org/data/main/Data:Austria.map","map":["https://commons.wikimedia.org/wiki/Special:FilePath/Austria%20on%20the%20globe%20%28Europe%20centered%29.svg","https://commons.wikimedia.org/wiki/Special:FilePath/EU-Austria.svg","https://commons.wikimedia.org/wiki/Special:FilePath/LocationAustria.svg"]},"regions":[{"isoCode":"1","countryCode":"AT","name":"Burgenland","fipsCode":"01","wikiId":"Q43210","numCities":304,"capital":"Eisenstadt"},{"isoCode":"2","countryCode":"AT","name":"Carinthia","fipsCode":"02","wikiId":"Q37985","numCities":289,"capital":"Klagenfurt"},{"isoCode":"3","countryCode":"AT","name":"Lower Austria","fipsCode":"03","wikiId":"Q42497","numCities":990,"capital":"St. Pölten"},{"isoCode":"5","countryCode":"AT","name":"Salzburg","fipsCode":"05","wikiId":"Q43325","numCities":208,"capital":"Salzburg"},{"isoCode":"6","countryCode":"AT","name":"Styria","fipsCode":"06","wikiId":"Q41358","numCities":599,"capital":"Graz"},{"isoCode":"7","countryCode":"AT","name":"Tyrol","fipsCode":"07","wikiId":"Q42880","numCities":417,"capital":"Innsbruck"},{"isoCode":"4","countryCode":"AT","name":"Upper Austria","fipsCode":"04","wikiId":"Q41967","numCities":634,"capital":"Linz"},{"isoCode":"9","countryCode":"AT","name":"Vienna","fipsCode":"09","wikiId":"Q1741","numCities":81,"capital":null},{"isoCode":"8","countryCode":"AT","name":"Vorarlberg","fipsCode":"08","wikiId":"Q38981","numCities":146,"capital":"Bregenz"}]}],"pageable":{"sort":{"sorted":false,"unsorted":true,"empty":true},"pageNumber":0,"pageSize":10,"offset":0,"paged":true,"unpaged":false},"last":false,"totalPages":20,"totalElements":195,"sort":{"sorted":false,"unsorted":true,"empty":true},"first":true,"number":0,"numberOfElements":10,"size":10,"empty":false}